{
  "name": "timeular-quote-block",
  "title": "Timeular Quote",
  "category": "common",
  "icon": "editor-quote",
  "description": "A simple WordPress Gutenberg Block to show and share quotes.",
  "textdomain": "timeular-quote-block",
  "supports": {
    "html": false
  },
  "editorScript": "file:./dist/index.js",
  "editorStyle": "file:./dist/index.css",
  "style": "file:./dist/style-index.css"
}
